Cabriolet; Kabriolet; cabrio
Coupe; Coupe; combi
Estate; Kombi; combi
SUV; SUV; suv
Saloon; Sedan; sedan
Small; Auta małe; mini
Small; Auta miejske; city-car
Small; Kompakt; compact
Van; Minivan; minivan